"store","websites","attribute_set","type","category_ids","sku","has_options","name","meta_title","meta_description","image","small_image","thumbnail","url_key","url_path","custom_design","page_layout","options_container","image_label","small_image_label","thumbnail_label","country_of_manufacture","msrp_enabled","msrp_display_actual_price_type","gift_message_available","fit_size","ncm","parcelas","price","special_price","weight","msrp","package_height","package_width","package_length","status","is_recurring","visibility","tax_class_id","volume_comprimento","volume_altura","volume_largura","posting_days","marca","ebizmarts_mark_visited","genero","leadtime","fragile","description","short_description","meta_keyword","custom_layout_update","postmethods","tabela_nutricional","video","special_from_date","special_to_date","news_from_date","news_to_date","custom_design_from","custom_design_to","qty","min_qty","use_config_min_qty","is_qty_decimal","backorders","use_config_backorders","min_sale_qty","use_config_min_sale_qty","max_sale_qty","use_config_max_sale_qty","is_in_stock","low_stock_date","notify_stock_qty","use_config_notify_stock_qty","manage_stock","use_config_manage_stock","stock_status_changed_auto","use_config_qty_increments","qty_increments","use_config_enable_qty_inc","enable_qty_increments","is_decimal_divided","stock_status_changed_automatically","use_config_enable_qty_increments","product_name","store_id","product_type_id","product_status_changed","product_changed_websites","sabor","price_type","sku_type","weight_type","price_view","shipment_type","color","recurring_profile"
"admin","base","Default","simple","7","134","0","CREATINA CREAPURE -300G - ATLHETICA EVOLUTION SERIES","","","/2/7/27307_creatina-creapure-atlhetica-evolution-2623_m1.png","/2/7/27307_creatina-creapure-atlhetica-evolution-2623_m1.png","/2/7/27307_creatina-creapure-atlhetica-evolution-2623_m1.png","creatina-atletica","creatina-atletica","","Sem atualizações de leiaute","Info Coluna de Produto","","",""," ","Utilizar configuração","Utilizar configuração","Não","","2925.20.90","1","80.0000","","300.0000","","","","","Habilitado","Não","Catálogo, Busca","Nenhum","16","2","11","","ATLHETICA NUTRITION","Não","Todos","0","0","A creatina auxilia no ganho de massa magra, recuperação após o treino, aumento de força e hidratação das células. A suplementação com creatina faz com que as células musculares trabalhem com mais energia, aumentando a resistência e atrasando a fadiga muscular.","","","","","","","","","","","","","40.0000","0.0000","1","0","0","1","1.0000","1","0.0000","1","1","","","1","0","1","0","1","0.0000","1","0","0","0","1","CREATINA CREAPURE -300G - ATLHETICA EVOLUTION SERIES","0","simple","","","","","","","","","",""
"admin","base","Proteinas","configurable","6,7","153","1","100% PURE WHEY PRO SERIES (900G) ATLHETICA NUTRITION","","","/1/7/1787579_100-pure-whey-protein-atlhetica-evolution-series-4119_m1_2_3.png","/1/7/1787579_100-pure-whey-protein-atlhetica-evolution-series-4119_m1_2_3.png","/1/7/1787579_100-pure-whey-protein-atlhetica-evolution-series-4119_m1_2_3.png","100-pure-whey-pro-series-900g-atlhetica-nutrition","100-pure-whey-pro-series-900g-atlhetica-nutrition","","Sem atualizações de leiaute","Info Coluna de Produto","","",""," ","Utilizar configuração","Utilizar configuração","Não","","21061000","1","130.0000","","900.0000","","","","","Habilitado","","Catálogo, Busca","Nenhum","16","2","11","","ATLHETICA NUTRITION","Não","Todos","0","0","100% Pure Whey, da Atlhetica Nutrition, é um suplemento alimentar formulado com proteínas de alto valor biológico, matéria-prima importada dos EUA e extraída do soro do leite por processo de filtração (Whey Protein Concentrada).","","","","","","","","","","","","","0.0000","0.0000","1","0","0","1","1.0000","1","0.0000","1","1","","","1","0","1","0","1","0.0000","1","0","0","0","1","100% PURE WHEY PRO SERIES (900G) ATLHETICA NUTRITION","0","configurable","","","","","","","","","",""
"admin","base","Proteinas","simple","","153-Chocolate","0","100% PURE WHEY PRO SERIES (900G) ATLHETICA NUTRITION - CHOCOLATE","","","/1/7/1787579_100-pure-whey-protein-atlhetica-evolution-series-4119_m1_2_1.png","/1/7/1787579_100-pure-whey-protein-atlhetica-evolution-series-4119_m1_2_1.png","/1/7/1787579_100-pure-whey-protein-atlhetica-evolution-series-4119_m1_2_1.png","100-pure-whey-pro-series-900g-atlhetica-nutrition-chocolate","100-pure-whey-pro-series-900g-atlhetica-nutrition-chocolate","","Sem atualizações de leiaute","Info Coluna de Produto","","",""," ","Utilizar configuração","Utilizar configuração","Não","","21061000","1","130.0000","","900.0000","","","","","Habilitado","Não","Não Exibir Individualmente","Nenhum","16","2","11","","ATLHETICA NUTRITION","Não","Todos","0","0","100% Pure Whey, da Atlhetica Nutrition, é um suplemento alimentar formulado com proteínas de alto valor biológico, matéria-prima importada dos EUA e extraída do soro do leite por processo de filtração (Whey Protein Concentrada).","","","","","","","","","","","","","30.0000","0.0000","1","0","0","1","1.0000","1","0.0000","1","1","","","1","0","1","0","1","0.0000","1","0","0","0","1","100% PURE WHEY PRO SERIES (900G) ATLHETICA NUTRITION - CHOCOLATE","0","simple","","","Chocolate","","","","","","",""
"admin","base","Proteinas","simple","","153-Morango","0","100% PURE WHEY PRO SERIES (900G) ATLHETICA NUTRITION - MORANGO","","","/1/7/1787579_100-pure-whey-protein-atlhetica-evolution-series-4119_m1_2.png","/1/7/1787579_100-pure-whey-protein-atlhetica-evolution-series-4119_m1_2.png","/1/7/1787579_100-pure-whey-protein-atlhetica-evolution-series-4119_m1_2.png","100-pure-whey-pro-series-900g-atlhetica-nutrition-morango","100-pure-whey-pro-series-900g-atlhetica-nutrition-morango","","Sem atualizações de leiaute","Info Coluna de Produto","","",""," ","Utilizar configuração","Utilizar configuração","Não","","21061000","1","143.0000","","900.0000","","","","","Habilitado","Não","Não Exibir Individualmente","Nenhum","16","2","11","","ATLHETICA NUTRITION","Não","Todos","0","0","100% Pure Whey, da Atlhetica Nutrition, é um suplemento alimentar formulado com proteínas de alto valor biológico, matéria-prima importada dos EUA e extraída do soro do leite por processo de filtração (Whey Protein Concentrada).","","","","","","","","","","","","","10.0000","0.0000","1","0","0","1","1.0000","1","0.0000","1","1","","","1","0","1","0","1","0.0000","1","0","0","0","1","100% PURE WHEY PRO SERIES (900G) ATLHETICA NUTRITION - MORANGO","0","simple","","","Morango","","","","","","",""
"admin","base","Default","bundle","79","4","1","Monte seu Kit","","","/c/o/combo--maromba-banner_1.jpg","/c/o/combo--maromba-banner_1.jpg","/c/o/combo--maromba-banner_1.jpg","monte-seu-kit","monte-seu-kit","","Sem atualizações de leiaute","Info Coluna de Produto","","",""," ","Não","","Não","","35040020","3","","","","","","","","Habilitado","","Catálogo, Busca","","16","2","11","","ATLHETICA NUTRITION","Não","Todos","0","0","Monte de Kit promocional","","","","Sedex Com Contrato (40096)","","","","","","","","","0.0000","0.0000","1","0","0","1","1.0000","1","0.0000","1","1","","","1","0","1","0","1","0.0000","1","0","0","0","1","Monte seu Kit","0","bundle","","","","0","0","0","Faixa de Preço","0","",""
"admin","base","Default","grouped","","agrupadão","0","Agrupadão","","","/p/r/produto-img1_ella_collagen.jpg","/p/r/produto-img1_ella_collagen.jpg","/p/r/produto-img1_ella_collagen.jpg","agrupad-o","agrupad-o","","Sem atualizações de leiaute","Info Coluna de Produto","","",""," ","","","Não","","21069030","1","70.0000","","","","","","","Habilitado","","Catálogo, Busca","","16","2","11","","ATLHETICA NUTRITION","Não","Todos","0","0","conjunto de produtos agrupados p/ promoção","conjunto de produtos agrupados p/ promoção","","","","","","","","","","","","0.0000","0.0000","1","0","0","1","1.0000","1","0.0000","1","1","","","1","0","1","0","1","0.0000","1","0","0","0","1","Agrupadão","0","grouped","","","","","","","","","",""
"admin","base","Default","simple","6,7","156","0","ISO+ (WHEY PROTEIN ISOLADO)  900G - 4 PLUS NUTRITION","","","/0/4/0429_iso-whey-protein-isolado-4-plus-nutrition-3132_m1_635857025819956000.png","/0/4/0429_iso-whey-protein-isolado-4-plus-nutrition-3132_m1_635857025819956000.png","/0/4/0429_iso-whey-protein-isolado-4-plus-nutrition-3132_m1_635857025819956000.png","iso-whey-protein-isolado-4-plus-nutrition","iso-whey-protein-isolado-4-plus-nutrition","","Sem atualizações de leiaute","Info Coluna de Produto","","",""," ","Utilizar configuração","Utilizar configuração","Não","","21061000","3","230.0000","","900.0000","","","","","Habilitado","Não","Catálogo, Busca","Nenhum","16","2","11","","4 PLUS NUTRITION","Não","Todos","0","0","ISO+ da 4 Plus é uma proteína isolada “Premium”. É uma fórmula melhorada com tecnologia europeia e que trás todas as tecnologias necessárias para melhor absorção e resultados.","","","","Sedex Com Contrato (40096)","","","","","","","","","10.0000","0.0000","1","0","0","1","1.0000","1","0.0000","1","1","","","1","0","1","0","1","0.0000","1","0","0","0","1","ISO+ (WHEY PROTEIN ISOLADO)  900G - 4 PLUS NUTRITION","0","simple","","","","","","","","","",""
"admin","base","Default","simple","53,102","159","0","GLUTAMINE MICRONIZED - 150G - ATLHETICA EVOLUTION SERIES","","","/2/2/2298087_glutamine-micronized-atlhetica-evolution-series-4251_m1.png","/2/2/2298087_glutamine-micronized-atlhetica-evolution-series-4251_m1.png","/2/2/2298087_glutamine-micronized-atlhetica-evolution-series-4251_m1.png","glutamine-micronized-atlhetica-evolution-series","glutamine-micronized-atlhetica-evolution-series","","Sem atualizações de leiaute","Info Coluna de Produto","","",""," ","Utilizar configuração","Utilizar configuração","Não","","2106.90.30","1","75.0000","","150.0000","","","","","Habilitado","Não","Catálogo, Busca","Nenhum","16","2","11","","ATLHETICA NUTRITION","Não","Todos","0","0","GLUTAMINE MICRONIZED®
A Glutamina Micronizada da Atlhetica Evolution é o aminoácido não-essencial mais abundante no corpo humano. A Glutamina Atlhetica Evolution é o responsável por transportar o oxigênio ao músculo e auxiliar na melhora do sistema imunológico, ideal para ser consumida no pós-treino.","","","","","","","","","","","","","10.0000","0.0000","1","0","0","1","1.0000","1","0.0000","1","1","","","1","0","1","0","1","0.0000","1","0","0","0","1","GLUTAMINE MICRONIZED - 150G - ATLHETICA EVOLUTION SERIES","0","simple","","","","","","","","","",""
"admin","base","Suplementos","configurable","6,7","148","1","WHEY 4HD -  907G - BLACK SKULL","","","/6/1/6165489_whey-4hd-black-skull-5400_m2_635929656261508000.png","/6/1/6165489_whey-4hd-black-skull-5400_m2_635929656261508000.png","/6/1/6165489_whey-4hd-black-skull-5400_m2_635929656261508000.png","whey-4hd-black-skull","whey-4hd-black-skull","","Sem atualizações de leiaute","Info Coluna de Produto","","",""," ","Utilizar configuração","Utilizar configuração","Não","","21061000","3","190.0000","","907.0000","","","","","Habilitado","","Catálogo, Busca","Nenhum","16","2","11","","ATLHETICA NUTRITION","Não","Todos","0","0","Whey 4HD da Black Skull é formulado com whey protein concentrado e whey protein isolado microfiltrado com exclusiva tecnologia chamada SpiroFuse Reverse Osmosis Filtration. É ideal para quem busca crescimento e definição dos músculos da melhor maneira possível. ","","","","Sedex Com Contrato (40096)","","","","","","","","","0.0000","0.0000","1","0","0","1","1.0000","1","0.0000","1","1","","","1","0","1","0","1","0.0000","1","0","0","0","1","WHEY 4HD -  907G - BLACK SKULL","0","configurable","","","","","","","","","",""
"admin","base","Suplementos","simple","","148-Baunilha","0","WHEY 4HD - BLACK SKULL-Baunilha","","","","","","whey-4hd-black-skull-baunilha","whey-4hd-black-skull-baunilha","","Sem atualizações de leiaute","Info Coluna de Produto","","",""," ","Utilizar configuração","Utilizar configuração","Não","","21061000","3","190.0000","","907.0000","","","","","Habilitado","Não","Não Exibir Individualmente","Nenhum","16","2","11","","ATLHETICA NUTRITION","Não","Todos","0","0","Whey 4HD da Black Skull é formulado com whey protein concentrado e whey protein isolado microfiltrado com exclusiva tecnologia chamada SpiroFuse Reverse Osmosis Filtration. É ideal para quem busca crescimento e definição dos músculos da melhor maneira possível. ","","","","Sedex Com Contrato (40096)","","","","","","","","","15.0000","0.0000","1","0","0","1","1.0000","1","0.0000","1","1","","","1","0","1","0","1","0.0000","1","0","0","0","1","WHEY 4HD - BLACK SKULL-Baunilha","0","simple","","","Baunilha","","","","","","",""
"admin","base","Suplementos","simple","","148-Chocolate","0","WHEY 4HD - BLACK SKULL-Chocolate","","","","","","whey-4hd-black-skull-chocolate","whey-4hd-black-skull-chocolate","","Sem atualizações de leiaute","Info Coluna de Produto","","",""," ","Utilizar configuração","Utilizar configuração","Não","","21061000","3","190.0000","","907.0000","","","","","Habilitado","Não","Não Exibir Individualmente","Nenhum","16","2","11","","ATLHETICA NUTRITION","Não","Todos","0","0","Whey 4HD da Black Skull é formulado com whey protein concentrado e whey protein isolado microfiltrado com exclusiva tecnologia chamada SpiroFuse Reverse Osmosis Filtration. É ideal para quem busca crescimento e definição dos músculos da melhor maneira possível. ","","","","Sedex Com Contrato (40096)","","","","","","","","","10.0000","0.0000","1","0","0","1","1.0000","1","0.0000","1","1","","","1","0","1","0","1","0.0000","1","0","0","0","1","WHEY 4HD - BLACK SKULL-Chocolate","0","simple","","","Chocolate","","","","","","",""
"admin","base","Suplementos","simple","","148-Morango","0","WHEY 4HD - BLACK SKULL-Morango","","","","","","whey-4hd-black-skull-morango","whey-4hd-black-skull-morango","","Sem atualizações de leiaute","Info Coluna de Produto","","",""," ","Utilizar configuração","Utilizar configuração","Não","","21061000","3","190.0000","","907.0000","","","","","Habilitado","Não","Não Exibir Individualmente","Nenhum","16","2","11","","ATLHETICA NUTRITION","Não","Todos","0","0","Whey 4HD da Black Skull é formulado com whey protein concentrado e whey protein isolado microfiltrado com exclusiva tecnologia chamada SpiroFuse Reverse Osmosis Filtration. É ideal para quem busca crescimento e definição dos músculos da melhor maneira possível. ","","","","Sedex Com Contrato (40096)","","","","","","","","","20.0000","0.0000","1","0","0","1","1.0000","1","0.0000","1","1","","","1","0","1","0","1","0.0000","1","0","0","0","1","WHEY 4HD - BLACK SKULL-Morango","0","simple","","","Morango","","","","","","",""
"admin","base","Suplementos","configurable","54,72","145","1","ACTIVATE HD - 240g - ATLHETICA PURE SERIES","","","/3/6/36977_activate-hd-atlhetica-by-rodolfo-peres-3669_m1_1.png","/3/6/36977_activate-hd-atlhetica-by-rodolfo-peres-3669_m1_1.png","/3/6/36977_activate-hd-atlhetica-by-rodolfo-peres-3669_m1_1.png","activate-hd-240g-atlhetica-pure-series","activate-hd-240g-atlhetica-pure-series","","Sem atualizações de leiaute","Info Coluna de Produto","","",""," ","Utilizar configuração","Utilizar configuração","Não","","3305.90.00","3","108.0000","","240.0000","","","","","Habilitado","","Catálogo, Busca","Nenhum","16","2","11","","ATLHETICA NUTRITION","Não","Todos","0","0","O Activate Hd Rodolfo Peres é um suplemento pré-treino com ação vasodilatadora. Diferente dos pré treinos cheios de estimulantes, o Activate Hd concentra substâncias que auxiliam na melhora do rendimentos. Activate Hd melhora o fluxo sanguíneo nos músculos.","","","","PAC Com Contrato (41068)","","","","","","","","","0.0000","0.0000","1","0","0","1","1.0000","1","0.0000","1","1","","","1","0","1","0","1","0.0000","1","0","0","0","1","ACTIVATE HD - 240g - ATLHETICA PURE SERIES","0","configurable","","","","","","","","","",""
"admin","base","Suplementos","simple","","145-Tangerina","0","ACTIVATE HD - 240g - ATLHETICA PURE SERIES-Tangerina","","","","","","activate-hd-240g-atlhetica-pure-series-tangerina","activate-hd-240g-atlhetica-pure-series-tangerina","","Sem atualizações de leiaute","Info Coluna de Produto","","",""," ","Utilizar configuração","Utilizar configuração","Não","","3305.90.00","3","108.0000","","240.0000","","","","","Habilitado","Não","Não Exibir Individualmente","Nenhum","16","2","11","","ATLHETICA NUTRITION","Não","Todos","0","0","O Activate Hd Rodolfo Peres é um suplemento pré-treino com ação vasodilatadora. Diferente dos pré treinos cheios de estimulantes, o Activate Hd concentra substâncias que auxiliam na melhora do rendimentos. Activate Hd melhora o fluxo sanguíneo nos músculos.","","","","PAC Com Contrato (41068)","","","","","","","","","10.0000","0.0000","1","0","0","1","1.0000","1","0.0000","1","1","","","1","0","1","0","1","0.0000","1","0","0","0","1","ACTIVATE HD - 240g - ATLHETICA PURE SERIES-Tangerina","0","simple","","","Tangerina","","","","","","",""
"admin","base","Suplementos","simple","","145-Uva","0","ACTIVATE HD - 240g - ATLHETICA PURE SERIES-Uva","","","","","","activate-hd-240g-atlhetica-pure-series-uva","activate-hd-240g-atlhetica-pure-series-uva","","Sem atualizações de leiaute","Info Coluna de Produto","","",""," ","Utilizar configuração","Utilizar configuração","Não","","3305.90.00","3","108.0000","","240.0000","","","","","Habilitado","Não","Não Exibir Individualmente","Nenhum","16","2","11","","ATLHETICA NUTRITION","Não","Todos","0","0","O Activate Hd Rodolfo Peres é um suplemento pré-treino com ação vasodilatadora. Diferente dos pré treinos cheios de estimulantes, o Activate Hd concentra substâncias que auxiliam na melhora do rendimentos. Activate Hd melhora o fluxo sanguíneo nos músculos.","","","","PAC Com Contrato (41068)","","","","","","","","","20.0000","0.0000","1","0","0","1","1.0000","1","0.0000","1","1","","","1","0","1","0","1","0.0000","1","0","0","0","1","ACTIVATE HD - 240g - ATLHETICA PURE SERIES-Uva","0","simple","","","Uva","","","","","","",""
"admin","base","Suplementos","configurable","53,102","151","1","HIPER MASS 17500 - 1KG - ATLHETICA NUTRITION","","","/1/7/1765914_hiper-mass-17500-atlhetica-4052_m2_635973464511540000.png","/1/7/1765914_hiper-mass-17500-atlhetica-4052_m2_635973464511540000.png","/1/7/1765914_hiper-mass-17500-atlhetica-4052_m2_635973464511540000.png","hiper-mass-17500-1kg-atlhetica-nutrition","hiper-mass-17500-1kg-atlhetica-nutrition","","Sem atualizações de leiaute","Info Coluna de Produto","","",""," ","Utilizar configuração","Utilizar configuração","Não","","19023000","3","30.0000","","1.0000","","","","","Habilitado","","Catálogo, Busca","Nenhum","16","2","11","","ATLHETICA NUTRITION","Não","Todos","0","0","HIPER MASS é um suplemento nutricional hipercalórico com baixo teor de gorduras por dose. A sua fórmula exclusiva apresenta proteínas de diferentes pesos moleculares, carboidratos complexos, 12 vitaminas e 11 minerais. Hiper Mass 17500 é formulado para atletas que visam o aumento da massa muscular e um corpo saudável. É uma maneira deliciosa de complementar sua alimentação com nutrientes de alta qualidade, para o máximo desempenho em em todas as fases do treino.","","","","PAC Com Contrato (41068)","","","","","","","","","0.0000","0.0000","1","0","0","1","1.0000","1","0.0000","1","1","","","1","0","1","0","1","0.0000","1","0","0","0","1","HIPER MASS 17500 - 1KG - ATLHETICA NUTRITION","0","configurable","","","","","","","","","",""
"admin","base","Suplementos","simple","","151-Baunilha","0","HIPER MASS 17500 - 1KG - ATLHETICA NUTRITION-Baunilha","","","","","","hiper-mass-17500-1kg-atlhetica-nutrition-baunilha","hiper-mass-17500-1kg-atlhetica-nutrition-baunilha","","Sem atualizações de leiaute","Info Coluna de Produto","","",""," ","Utilizar configuração","Utilizar configuração","Não","","19023000","3","30.0000","","1.0000","","","","","Habilitado","Não","Não Exibir Individualmente","Nenhum","16","2","11","","ATLHETICA NUTRITION","Não","Todos","0","0","HIPER MASS é um suplemento nutricional hipercalórico com baixo teor de gorduras por dose. A sua fórmula exclusiva apresenta proteínas de diferentes pesos moleculares, carboidratos complexos, 12 vitaminas e 11 minerais. Hiper Mass 17500 é formulado para atletas que visam o aumento da massa muscular e um corpo saudável. É uma maneira deliciosa de complementar sua alimentação com nutrientes de alta qualidade, para o máximo desempenho em em todas as fases do treino.","","","","PAC Com Contrato (41068)","","","","","","","","","10.0000","0.0000","1","0","0","1","1.0000","1","0.0000","1","1","","","1","0","1","0","1","0.0000","1","0","0","0","1","HIPER MASS 17500 - 1KG - ATLHETICA NUTRITION-Baunilha","0","simple","","","Baunilha","","","","","","",""
"admin","base","Suplementos","simple","","151-Chocolate","0","HIPER MASS 17500 - 1KG - ATLHETICA NUTRITION-Chocolate","","","","","","hiper-mass-17500-1kg-atlhetica-nutrition-chocolate","hiper-mass-17500-1kg-atlhetica-nutrition-chocolate","","Sem atualizações de leiaute","Info Coluna de Produto","","",""," ","Utilizar configuração","Utilizar configuração","Não","","19023000","3","30.0000","","1.0000","","","","","Habilitado","Não","Não Exibir Individualmente","Nenhum","16","2","11","","ATLHETICA NUTRITION","Não","Todos","0","0","HIPER MASS é um suplemento nutricional hipercalórico com baixo teor de gorduras por dose. A sua fórmula exclusiva apresenta proteínas de diferentes pesos moleculares, carboidratos complexos, 12 vitaminas e 11 minerais. Hiper Mass 17500 é formulado para atletas que visam o aumento da massa muscular e um corpo saudável. É uma maneira deliciosa de complementar sua alimentação com nutrientes de alta qualidade, para o máximo desempenho em em todas as fases do treino.","","","","PAC Com Contrato (41068)","","","","","","","","","10.0000","0.0000","1","0","0","1","1.0000","1","0.0000","1","1","","","1","0","1","0","1","0.0000","1","0","0","0","1","HIPER MASS 17500 - 1KG - ATLHETICA NUTRITION-Chocolate","0","simple","","","Chocolate","","","","","","",""
"admin","base","Suplementos","simple","","151-Morango","0","HIPER MASS 17500 - 1KG - ATLHETICA NUTRITION-Morango","","","","","","hiper-mass-17500-1kg-atlhetica-nutrition-morango","hiper-mass-17500-1kg-atlhetica-nutrition-morango","","Sem atualizações de leiaute","Info Coluna de Produto","","",""," ","Utilizar configuração","Utilizar configuração","Não","","19023000","3","30.0000","","1.0000","","","","","Habilitado","Não","Não Exibir Individualmente","Nenhum","16","2","11","","ATLHETICA NUTRITION","Não","Todos","0","0","HIPER MASS é um suplemento nutricional hipercalórico com baixo teor de gorduras por dose. A sua fórmula exclusiva apresenta proteínas de diferentes pesos moleculares, carboidratos complexos, 12 vitaminas e 11 minerais. Hiper Mass 17500 é formulado para atletas que visam o aumento da massa muscular e um corpo saudável. É uma maneira deliciosa de complementar sua alimentação com nutrientes de alta qualidade, para o máximo desempenho em em todas as fases do treino.","","","","PAC Com Contrato (41068)","","","","","","","","","10.0000","0.0000","1","0","0","1","1.0000","1","0.0000","1","1","","","1","0","1","0","1","0.0000","1","0","0","0","1","HIPER MASS 17500 - 1KG - ATLHETICA NUTRITION-Morango","0","simple","","","Morango","","","","","","",""
"admin","base","Default","simple","38,52","183","0","SQUEEZE TERMICO - 650ml - ZIPVIT","","","/5/4/5441486_squeeze-termico-zipvit-4539_m1.png","/5/4/5441486_squeeze-termico-zipvit-4539_m1.png","/5/4/5441486_squeeze-termico-zipvit-4539_m1.png","squeeze-termico-650ml-zipvit","squeeze-termico-650ml-zipvit","","Sem atualizações de leiaute","Info Coluna de Produto","","",""," ","Utilizar configuração","Utilizar configuração","Não","","39233000","3","95.0000","","130.0000","","","","","Habilitado","Não","Catálogo, Busca","Nenhum","16","2","11","","ATLHETICA NUTRITION","Não","Todos","0","0","Garrafa Termica Zipvit Iceberg ","","","","PAC Com Contrato (41068)","","","","","","","","","10.0000","0.0000","1","0","0","1","1.0000","1","0.0000","1","0","","","1","0","1","0","1","0.0000","1","0","0","0","1","SQUEEZE TERMICO - 650ml - ZIPVIT","0","simple","","","","","","","","","",""
"admin","base","Default","simple","52","133","0","BONÉ - 4+ ATHLETICS - AMARELO FLUORESCENTE","","","/5/9/5947754_bone-amarelo-fluorescente-4-athletics-5238_m2_635870731984304000.png","/5/9/5947754_bone-amarelo-fluorescente-4-athletics-5238_m2_635870731984304000.png","/5/9/5947754_bone-amarelo-fluorescente-4-athletics-5238_m2_635870731984304000.png","bone-4-athletics-amarelo-fluorescente","bone-4-athletics-amarelo-fluorescente","","Sem atualizações de leiaute","Info Coluna de Produto","","",""," ","Utilizar configuração","Utilizar configuração","Não","","6505901","3","80.0000","","100.0000","","","","","Habilitado","Não","Catálogo, Busca","Nenhum","16","2","11","","4 PLUS NUTRITION","Não","Todos","0","0","Boné da 4+ Athletics - Cor Amarelo Fluorescente","","","","PAC Com Contrato (41068)","","","","","","","","","10.0000","0.0000","1","0","0","1","1.0000","1","0.0000","1","0","","","1","0","1","0","1","0.0000","1","0","0","0","1","BONÉ - 4+ ATHLETICS - AMARELO FLUORESCENTE","0","simple","","","","","","","","","",""
"admin","base","Suplementos","simple","54,66","103","0","L-GLUTAMINE - 120G - PROBIÓTICA","","","/0/2/0203_l-glutamine-probiotica-55_m2.png","/0/2/0203_l-glutamine-probiotica-55_m2.png","/0/2/0203_l-glutamine-probiotica-55_m2.png","l-glutamine-probiotica","l-glutamine-probiotica","","Sem atualizações de leiaute","Info Coluna de Produto","","",""," ","Utilizar configuração","Utilizar configuração","Não","","2106.90.30","3","123.0000","","120.0000","","","","","Habilitado","Não","Catálogo, Busca","Nenhum","16","2","11","","PROBIÓTICA","Não","Todos","0","0","A glutamina ajuda o corpo a se proteger contra as perdas excessivas de tecido muscular. Quem treina pesado, provavelmente necessita de mais glutamina do que pessoas sedentárias. A glutamina é o mais abundante aminoácido livre no tecido muscular. Desempenha um papel fundamental no metabolismo proteico, no aumento do volume celular e no anti-catabolismo. Isso significa que pode auxiliar na prevenção da perda de músculos.

Glutamina é o aminoácido não-essencial mais abundante no corpo humano. Ele pode ser encontrado principalmente no sangue e músculos. Glutamina tem uma estrutura única consistindo em 19% de nitrogênio que o torna o transportador primário de nitrogênio para a célula do músculo. É responsável por 35% do nitrogênio que chega às células musculares onde é sintetizado para crescimento. Destina-se à nutrição oral ou enteral.","","","","Sedex Com Contrato (40096)","","","","","","","","","15.0000","0.0000","1","0","0","1","1.0000","1","0.0000","1","1","","","1","0","1","0","1","0.0000","1","0","0","0","1","L-GLUTAMINE - 120G - PROBIÓTICA","0","simple","","","Uva","","","","","","",""
"admin","base","Suplementos","configurable","54,58","142","1","BCAA 4:1:1 DRINK - 280G - MAX TITANIUM","","","/0/5/0571_medium1.png","/0/5/0571_medium1.png","/0/5/0571_medium1.png","bcaa-4-1-1-drink-280g-max-titanium","bcaa-4-1-1-drink-280g-max-titanium","","Sem atualizações de leiaute","Info Coluna de Produto","","",""," ","Utilizar configuração","Utilizar configuração","Não","","2106.90.30","3","110.0000","","280.0000","","","","","Habilitado","","Catálogo, Busca","Nenhum","16","2","11","","MAX TITANIUM","Não","Todos","0","0","O BCAA 4:1:1 Drink é um suplemento em pó para preparo de uma bebida que vai ajudar no aumento de massa muscular, energia, força e reposição muscular.
","","","","Sedex Com Contrato (40096)","","","","","","","","","0.0000","0.0000","1","0","0","1","1.0000","1","0.0000","1","1","","","1","0","1","0","1","0.0000","1","0","0","0","1","BCAA 4:1:1 DRINK - 280G - MAX TITANIUM","0","configurable","","","","","","","","","",""
"admin","base","Suplementos","simple","","142-Uva","0","BCAA 4:1:1 DRINK - 280G - MAX TITANIUM-Uva","","","","","","bcaa-4-1-1-drink-280g-max-titanium-uva","bcaa-4-1-1-drink-280g-max-titanium-uva","","Sem atualizações de leiaute","Info Coluna de Produto","","",""," ","Utilizar configuração","Utilizar configuração","Não","","2106.90.30","3","110.0000","","280.0000","","","","","Habilitado","Não","Não Exibir Individualmente","Nenhum","16","2","11","","MAX TITANIUM","Não","Todos","0","0","O BCAA 4:1:1 Drink é um suplemento em pó para preparo de uma bebida que vai ajudar no aumento de massa muscular, energia, força e reposição muscular.
","","","","Sedex Com Contrato (40096)","","","","","","","","","15.0000","0.0000","1","0","0","1","1.0000","1","0.0000","1","1","","","1","0","1","0","1","0.0000","1","0","0","0","1","BCAA 4:1:1 DRINK - 280G - MAX TITANIUM-Uva","0","simple","","","Uva","","","","","","",""
"admin","base","Suplementos","simple","","142-Limão","0","BCAA 4:1:1 DRINK - 280G - MAX TITANIUM-Limão","","","","","","bcaa-4-1-1-drink-280g-max-titanium-lim-o","bcaa-4-1-1-drink-280g-max-titanium-lim-o","","Sem atualizações de leiaute","Info Coluna de Produto","","",""," ","Utilizar configuração","Utilizar configuração","Não","","2106.90.30","3","110.0000","","280.0000","","","","","Habilitado","Não","Não Exibir Individualmente","Nenhum","16","2","11","","MAX TITANIUM","Não","Todos","0","0","O BCAA 4:1:1 Drink é um suplemento em pó para preparo de uma bebida que vai ajudar no aumento de massa muscular, energia, força e reposição muscular.
","","","","Sedex Com Contrato (40096)","","","","","","","","","10.0000","0.0000","1","0","0","1","1.0000","1","0.0000","1","1","","","1","0","1","0","1","0.0000","1","0","0","0","1","BCAA 4:1:1 DRINK - 280G - MAX TITANIUM-Limão","0","simple","","","Limão","","","","","","",""
"admin","base","Suplementos","simple","","142-Laranja","0","BCAA 4:1:1 DRINK - 280G - MAX TITANIUM - Laranja","","","","","","bcaa-4-1-1-drink-280g-max-titanium-laranja","bcaa-4-1-1-drink-280g-max-titanium-laranja","","Sem atualizações de leiaute","Info Coluna de Produto","","",""," ","Utilizar configuração","Utilizar configuração","Não","","2106.90.30","3","110.0000","","280.0000","","","","","Habilitado","Não","Não Exibir Individualmente","Nenhum","16","2","11","","MAX TITANIUM","Não","Todos","0","0","O BCAA 4:1:1 Drink é um suplemento em pó para preparo de uma bebida que vai ajudar no aumento de massa muscular, energia, força e reposição muscular.
","","","","Sedex Com Contrato (40096)","","","","","","","","","10.0000","0.0000","1","0","0","1","1.0000","1","0.0000","1","1","","","1","0","1","0","1","0.0000","1","0","0","0","1","BCAA 4:1:1 DRINK - 280G - MAX TITANIUM - Laranja","0","simple","","","Laranja","","","","","","",""
"admin","base","Suplementos","simple","","142-Maracujá","0","BCAA 4:1:1 DRINK - 280G - MAX TITANIUM-Maracujá","","","","","","bcaa-4-1-1-drink-280g-max-titanium-maracuja","bcaa-4-1-1-drink-280g-max-titanium-maracuja","","Sem atualizações de leiaute","Info Coluna de Produto","","",""," ","Utilizar configuração","Utilizar configuração","Não","","2106.90.30","3","110.0000","","280.0000","","","","","Habilitado","Não","Não Exibir Individualmente","Nenhum","16","2","11","","MAX TITANIUM","Não","Todos","0","0","O BCAA 4:1:1 Drink é um suplemento em pó para preparo de uma bebida que vai ajudar no aumento de massa muscular, energia, força e reposição muscular.
","","","","Sedex Com Contrato (40096)","","","","","","","","","15.0000","0.0000","1","0","0","1","1.0000","1","0.0000","1","1","","","1","0","1","0","1","0.0000","1","0","0","0","1","BCAA 4:1:1 DRINK - 280G - MAX TITANIUM-Maracujá","0","simple","","","Maracujá","","","","","","",""
"admin","base","Suplementos","configurable","54,76","106","1","WAXY MAIZE - 1,4 KG - PROBIÓTICA","","","/0/6/0633_waxy-maize-probiotica-3055_m1.png","/0/6/0633_waxy-maize-probiotica-3055_m1.png","/0/6/0633_waxy-maize-probiotica-3055_m1.png","waxy-maize-1-4-kg-probiotica","waxy-maize-1-4-kg-probiotica","","Sem atualizações de leiaute","Info Coluna de Produto","","",""," ","Utilizar configuração","Utilizar configuração","Não","","3505.10.00","3","100.0000","","1.4000","","","","","Habilitado","","Catálogo, Busca","Nenhum","16","2","11","","PROBIÓTICA","Não","Todos","0","0","Waxy Maize da Probiótica é um amido de milho ceroso obtido através de uma diferenciada tecnologia de fabricação.","","","","Sedex Com Contrato (40096)","","","","","","","","","0.0000","0.0000","1","0","0","1","1.0000","1","0.0000","1","1","","","1","0","1","0","1","0.0000","1","0","0","0","1","WAXY MAIZE - 1,4 KG - PROBIÓTICA","0","configurable","","","","","","","","","",""
"admin","base","Suplementos","simple","","106-Natural","0","WAXY MAIZE - 1,4 KG - PROBIÓTICA-Natural","","","","","","waxy-maize-1-4-kg-probiotica-natural","waxy-maize-1-4-kg-probiotica-natural","","Sem atualizações de leiaute","Info Coluna de Produto","","",""," ","Utilizar configuração","Utilizar configuração","Não","","3505.10.00","3","100.0000","","1.4000","","","","","Habilitado","Não","Não Exibir Individualmente","Nenhum","16","2","11","","PROBIÓTICA","Não","Todos","0","0","Waxy Maize da Probiótica é um amido de milho ceroso obtido através de uma diferenciada tecnologia de fabricação.","","","","Sedex Com Contrato (40096)","","","","","","","","","10.0000","0.0000","1","0","0","1","1.0000","1","0.0000","1","1","","","1","0","1","0","1","0.0000","1","0","0","0","1","WAXY MAIZE - 1,4 KG - PROBIÓTICA-Natural","0","simple","","","Natural","","","","","","",""
"admin","base","Suplementos","simple","","106-Açai c/ Guaraná","0","WAXY MAIZE - 1,4 KG - PROBIÓTICA-Açai c/ Guaraná","","","","","","waxy-maize-1-4-kg-probiotica-acai-c-guarana","waxy-maize-1-4-kg-probiotica-acai-c-guarana","","Sem atualizações de leiaute","Info Coluna de Produto","","",""," ","Utilizar configuração","Utilizar configuração","Não","","3505.10.00","3","100.0000","","1.4000","","","","","Habilitado","Não","Não Exibir Individualmente","Nenhum","16","2","11","","PROBIÓTICA","Não","Todos","0","0","Waxy Maize da Probiótica é um amido de milho ceroso obtido através de uma diferenciada tecnologia de fabricação.","","","","Sedex Com Contrato (40096)","","","","","","","","","5.0000","0.0000","1","0","0","1","1.0000","1","0.0000","1","1","","","1","0","1","0","1","0.0000","1","0","0","0","1","WAXY MAIZE - 1,4 KG - PROBIÓTICA-Açai c/ Guaraná","0","simple","","","Açai c/ Guaraná","","","","","","",""
"admin","base","Suplementos","simple","","106-Laranja","0","WAXY MAIZE - 1,4 KG - PROBIÓTICA-Laranja","","","","","","waxy-maize-1-4-kg-probiotica-laranja","waxy-maize-1-4-kg-probiotica-laranja","","Sem atualizações de leiaute","Info Coluna de Produto","","",""," ","Utilizar configuração","Utilizar configuração","Não","","3505.10.00","3","100.0000","","1.4000","","","","","Habilitado","Não","Não Exibir Individualmente","Nenhum","16","2","11","","PROBIÓTICA","Não","Todos","0","0","Waxy Maize da Probiótica é um amido de milho ceroso obtido através de uma diferenciada tecnologia de fabricação.","","","","Sedex Com Contrato (40096)","","","","","","","","","10.0000","0.0000","1","0","0","1","1.0000","1","0.0000","1","1","","","1","0","1","0","1","0.0000","1","0","0","0","1","WAXY MAIZE - 1,4 KG - PROBIÓTICA-Laranja","0","simple","","","Laranja","","","","","","",""
"admin","base","Suplementos","configurable","6,7","111","1","WHEY PRO REFIL - 1,5 KG - MAX TITANIUM","","","/0/6/0636_medium1.png","/0/6/0636_medium1.png","/0/6/0636_medium1.png","whey-pro-refil-1-5-kg-max-titanium","whey-pro-refil-1-5-kg-max-titanium","","Sem atualizações de leiaute","Info Coluna de Produto","","",""," ","Utilizar configuração","Utilizar configuração","Não","","2106.90.30","3","89.9000","","1500.0000","","","","","Habilitado","","Catálogo, Busca","Nenhum","16","2","11","","MAX TITANIUM","Não","Todos","0","0","O Whey Pro Refil da Max Titanium, é um suplemento alimentar à base de whey protein concentrado (WPC), proteína de alto valor biológico.","","","","Sedex Com Contrato (40096)","","","","","","","","","0.0000","0.0000","1","0","0","1","1.0000","1","0.0000","1","1","","","1","0","1","0","1","0.0000","1","0","0","0","1","WHEY PRO REFIL - 1,5 KG - MAX TITANIUM","0","configurable","","","","","","","","","",""
"admin","base","Suplementos","simple","","111-Baunilha","0","WHEY PRO REFIL - 1,5 KG - MAX TITANIUM-Baunilha","","","","","","whey-pro-refil-1-5-kg-max-titanium-baunilha","whey-pro-refil-1-5-kg-max-titanium-baunilha","","Sem atualizações de leiaute","Info Coluna de Produto","","",""," ","Utilizar configuração","Utilizar configuração","Não","","2106.90.30","3","89.9000","","1500.0000","","","","","Habilitado","Não","Não Exibir Individualmente","Nenhum","16","2","11","","MAX TITANIUM","Não","Todos","0","0","O Whey Pro Refil da Max Titanium, é um suplemento alimentar à base de whey protein concentrado (WPC), proteína de alto valor biológico.","","","","Sedex Com Contrato (40096)","","","","","","","","","10.0000","0.0000","1","0","0","1","1.0000","1","0.0000","1","1","","","1","0","1","0","1","0.0000","1","0","0","0","1","WHEY PRO REFIL - 1,5 KG - MAX TITANIUM-Baunilha","0","simple","","","Baunilha","","","","","","",""
"admin","base","Suplementos","simple","","111-Chocolate","0","WHEY PRO REFIL - 1,5 KG - MAX TITANIUM-Chocolate","","","","","","whey-pro-refil-1-5-kg-max-titanium-chocolate","whey-pro-refil-1-5-kg-max-titanium-chocolate","","Sem atualizações de leiaute","Info Coluna de Produto","","",""," ","Utilizar configuração","Utilizar configuração","Não","","2106.90.30","3","89.9000","","1500.0000","","","","","Habilitado","Não","Não Exibir Individualmente","Nenhum","16","2","11","","MAX TITANIUM","Não","Todos","0","0","O Whey Pro Refil da Max Titanium, é um suplemento alimentar à base de whey protein concentrado (WPC), proteína de alto valor biológico.","","","","Sedex Com Contrato (40096)","","","","","","","","","8.0000","0.0000","1","0","0","1","1.0000","1","0.0000","1","1","","","1","0","1","0","1","0.0000","1","0","0","0","1","WHEY PRO REFIL - 1,5 KG - MAX TITANIUM-Chocolate","0","simple","","","Chocolate","","","","","","",""
"admin","base","Suplementos","simple","","111-Morango","0","WHEY PRO REFIL - 1,5 KG - MAX TITANIUM-Morango","","","","","","whey-pro-refil-1-5-kg-max-titanium-morango","whey-pro-refil-1-5-kg-max-titanium-morango","","Sem atualizações de leiaute","Info Coluna de Produto","","",""," ","Utilizar configuração","Utilizar configuração","Não","","2106.90.30","3","89.9000","","1500.0000","","","","","Habilitado","Não","Não Exibir Individualmente","Nenhum","16","2","11","","MAX TITANIUM","Não","Todos","0","0","O Whey Pro Refil da Max Titanium, é um suplemento alimentar à base de whey protein concentrado (WPC), proteína de alto valor biológico.","","","","Sedex Com Contrato (40096)","","","","","","","","","10.0000","0.0000","1","0","0","1","1.0000","1","0.0000","1","1","","","1","0","1","0","1","0.0000","1","0","0","0","1","WHEY PRO REFIL - 1,5 KG - MAX TITANIUM-Morango","0","simple","","","Morango","","","","","","",""
"admin","base","Suplementos","simple","","111-Vitamina de Frutas","0","WHEY PRO REFIL - 1,5 KG - MAX TITANIUM-Vitamina de Frutas","","","","","","whey-pro-refil-1-5-kg-max-titanium-vitamina-de-frutas","whey-pro-refil-1-5-kg-max-titanium-vitamina-de-frutas","","Sem atualizações de leiaute","Info Coluna de Produto","","",""," ","Utilizar configuração","Utilizar configuração","Não","","2106.90.30","3","89.9000","","1500.0000","","","","","Habilitado","Não","Não Exibir Individualmente","Nenhum","16","2","11","","MAX TITANIUM","Não","Todos","0","0","O Whey Pro Refil da Max Titanium, é um suplemento alimentar à base de whey protein concentrado (WPC), proteína de alto valor biológico.","","","","Sedex Com Contrato (40096)","","","","","","","","","5.0000","0.0000","1","0","0","1","1.0000","1","0.0000","1","1","","","1","0","1","0","1","0.0000","1","0","0","0","1","WHEY PRO REFIL - 1,5 KG - MAX TITANIUM-Vitamina de Frutas","0","simple","","","Vitamina de Frutas","","","","","","",""
