id,parent_id,path,name,url_value,has_children
2,1,1/2,CATEGORIAS,,1
4,,/4,PROTEÍNAS,proteinas,0
21,54,1/2/54/21,"Whey Protein Hidrolisado",whey-protein-hidrolisado,0
27,54,1/2/54/27,"Whey Protein isolada",protein-isolate,0
39,2,1/2/39,MARCAS,marcas,1
54,2,1/2/54,CATEGORIAS,categorias,1
58,54,1/2/54/58,BCAA,bcaa,0
64,54,1/2/54/64,Creatina,creatina,0
66,54,1/2/54/66,Glutamina,glutamina,0
72,54,1/2/54/72,"Pré treino",pre-treino,0
75,54,1/2/54/75,Termogênico,termogenico,0
78,54,1/2/54/78,Gourmet,gourmet,0
112,54,1/2/54/112,Colágeno,proteicos-colageno,0
113,2,1/2/113,COMBOS,combos,0
115,39,1/2/39/115,"Black Skull",black-skull,0
116,39,1/2/39/116,Thiani,thiani,0
117,39,1/2/39/117,"Power One",power-one,0
118,54,1/2/54/118,Coqueteleira,coqueteleira,0
125,2,1/2/125,HUNTERPOINTS,hunter-points,0
126,2,1/2/126,BLOG,blog,0
128,54,1/2/54/128,"Whey Protein",whey-protein,0
129,39,1/2/39/129,"3VS Nutrition",3vs-nutrition,0
130,39,1/2/39/130,"BLACK SKULL / CAVEIRA PRETA",black-skull-caveira-preta,0
133,2,1/2/133,PARCEIROS,parceiros,0
